label,auc
cloudy,0.994201666667
artisinal_mine,0.993303666667
partly_cloudy,0.987163333333
primary,0.984200333333
clear,0.982603666667
haze,0.968623
conventional_mine,0.968031
road,0.965326
agriculture,0.953281666667
habitation,0.953089333333
water,0.943574
blooming,0.917202333333
selective_logging,0.912616666667
slash_burn,0.898640333333
bare_ground,0.897350666667
cultivation,0.892958
blow_down,0.883170333333
