{
    "cv": -0.9314,
    "auc":
    {
        "blow_down"             : 0.910586,
        "cultivation"           : 0.93100075,
        "bare_ground"           : 0.938787,
        "slash_burn"            : 0.94637925,
        "blooming"              : 0.94903225,
        "selective_logging"     : 0.95519025,
        "water"                 : 0.96672175,
        "agriculture"           : 0.968219,
        "habitation"            : 0.972198,
        "haze"                  : 0.97588875,
        "road"                  : 0.977988,
        "conventional_mine"     : 0.981705,
        "primary"               : 0.986372,
        "clear"                 : 0.99107425,
        "artisinal_mine"        : 0.9937915,
        "cloudy"                : 0.99495125,
        "partly_cloudy"         : 0.995224
    }
}